Data Visualization Project
…
Lily
93

Jack
87

Sophie
81

pets %>% 
  filter(species == "Cat") %>% 
  drop_na(animal_s_name) %>% 
  count(animal_s_name, sort = TRUE)

## # A tibble: 8,228 x 2
##    animal_s_name     n
##    <chr>         <int>
##  1 Lucy            150
##  2 Max             120
##  3 Luna            119
##  4 Bella           113
##  5 Oliver          108
##  6 Charlie          99
##  7 Lily             93
##  8 Jack             87
##  9 Sophie           81
## 10 Shadow           69
## # ... with 8,218 more rows

## Table: Most frequent Dog Name
## ADD CODE!
pets %>% 
  filter(species == "Dog") %>% 
  drop_na(animal_s_name) %>% 
  count(animal_s_name, sort = TRUE)

## # A tibble: 10,868 x 2
##    animal_s_name     n
##    <chr>         <int>
##  1 Lucy            416
##  2 Charlie         348
##  3 Bella           338
##  4 Buddy           256
##  5 Daisy           256
##  6 Max             254
##  7 Molly           243
##  8 Luna            242
##  9 Lola            232
## 10 Maggie          226
## # ... with 10,858 more rows
…
steak

## # A tibble: 550 x 15
##    RespondentID `Consider the f~ `Do you ever sm~ `Do you ever dr~
##           <dbl> <chr>            <chr>            <chr>           
##  1   3237565956 Lottery B        <NA>             <NA>            
##  2   3234982343 Lottery A        No               Yes             
##  3   3234973379 Lottery A        No               Yes             
##  4   3234972383 Lottery B        Yes              Yes             
##  5   3234958833 Lottery B        No               Yes             
##  6   3234955240 Lottery A        No               No              
##  7   3234955097 Lottery A        No               Yes             
##  8   3234955010 Lottery A        No               Yes             
##  9   3234953052 Lottery A        Yes              Yes             
## 10   3234951249 Lottery B        No               Yes             
## # ... with 540 more rows, and 11 more variables: `Do you ever gamble?` <chr>,
## #   `Have you ever been skydiving?` <chr>, `Do you ever drive above the speed
## #   limit?` <chr>, `Have you ever cheated on your significant other?` <chr>,
## #   `Do you eat steak?` <chr>, `How do you like your steak prepared?` <chr>,
## #   Gender <chr>, Age <chr>, `Household Income` <chr>, Education <chr>,
## #   `Location (Census Region)` <chr>
…
